{


  "users": [
    {
    "name": "aaron",
    "display_name": "Aaron Cooper",
    "bio": "<p>Mauris euismod dolor sed sapien placerat, placerat aliquam mauris interdum. Morbi finibus quam vitae mauris fringilla tincidunt. Sed sed massa risus. Maecenas ac elit et sem imperdiet mollis. Integer tristique risus dolor, vel feugiat sem ultricies sed. Duis feugiat nec nunc quis laoreet. Pellentesque habitant morbi tristique senectus et netus et malesuada fames ac turpis egestas. Sed nec ante at ipsum bibendum lacinia.</p>"
    },
    {
    "name": "hailey",
    "display_name": "Hailey Bryant",
    "bio": "<p>Mauris euismod dolor sed sapien placerat, placerat aliquam mauris interdum. Morbi finibus quam vitae mauris fringilla tincidunt. Sed sed massa risus. Maecenas ac elit et sem imperdiet mollis. Integer tristique risus dolor, vel feugiat sem ultricies sed. Duis feugiat nec nunc quis laoreet. Pellentesque habitant morbi tristique senectus et netus et malesuada fames ac turpis egestas. Sed nec ante at ipsum bibendum lacinia.</p>"
    },
    {
    "name": "jenny",
    "display_name": "Jenny Roberts",
    "bio": "<p>Mauris euismod dolor sed sapien placerat, placerat aliquam mauris interdum. Morbi finibus quam vitae mauris fringilla tincidunt. Sed sed massa risus. Maecenas ac elit et sem imperdiet mollis. Integer tristique risus dolor, vel feugiat sem ultricies sed. Duis feugiat nec nunc quis laoreet. Pellentesque habitant morbi tristique senectus et netus et malesuada fames ac turpis egestas. Sed nec ante at ipsum bibendum lacinia.</p>"
    },
    {
    "name": "megan",
    "display_name": "Megan Fletcher",
    "bio": "<p>Mauris euismod dolor sed sapien placerat, placerat aliquam mauris interdum. Morbi finibus quam vitae mauris fringilla tincidunt. Sed sed massa risus. Maecenas ac elit et sem imperdiet mollis. Integer tristique risus dolor, vel feugiat sem ultricies sed. Duis feugiat nec nunc quis laoreet. Pellentesque habitant morbi tristique senectus et netus et malesuada fames ac turpis egestas. Sed nec ante at ipsum bibendum lacinia.</p>"
    },
    {
    "name": "paul",
    "display_name": "Paul Morris",
    "bio": "<p>Mauris euismod dolor sed sapien placerat, placerat aliquam mauris interdum. Morbi finibus quam vitae mauris fringilla tincidunt. Sed sed massa risus. Maecenas ac elit et sem imperdiet mollis. Integer tristique risus dolor, vel feugiat sem ultricies sed. Duis feugiat nec nunc quis laoreet. Pellentesque habitant morbi tristique senectus et netus et malesuada fames ac turpis egestas. Sed nec ante at ipsum bibendum lacinia.</p>"
    }
  ]

}